M48
;DRILL file {KiCad (5.0.2)-1} date 2/19/2019 9:14:53 AM
;FORMAT={-:-/ absolute / metric / decimal}
FMAT,2
METRIC,TZ
T1C0.889
T2C0.900
T3C1.000
T4C1.200
T5C1.500
T6C1.600
T7C3.404
%
G90
G05
T1
X135.621Y69.07
X138.161Y69.07
X140.701Y69.07
X143.241Y69.07
X145.781Y69.07
X148.321Y69.07
T2
X89.964Y86.545
X92.504Y86.545
X95.044Y86.545
X142.657Y86.685
X142.657Y84.145
X142.657Y81.605
X148.295Y89.238
X148.295Y86.698
X148.295Y84.158
X148.295Y81.618
X132.497Y86.685
X132.497Y84.145
X132.497Y81.605
X110.274Y81.528
X110.274Y68.828
X112.814Y81.528
X112.814Y68.828
X115.354Y81.528
X115.354Y68.828
X117.894Y81.528
X117.894Y68.828
X120.434Y81.528
X120.434Y68.828
X122.974Y81.528
X122.974Y68.828
X125.514Y81.528
X125.514Y68.828
X128.054Y81.528
X128.054Y68.828
X105.649Y40.597
X105.649Y38.057
X105.649Y35.517
X103.109Y40.597
X103.109Y38.057
X103.109Y35.517
X108.951Y43.442
X111.491Y43.442
X114.031Y43.442
X116.571Y43.442
X119.111Y43.442
X121.651Y43.442
X124.191Y43.442
X126.731Y43.442
X140.117Y86.685
X140.117Y84.145
X140.117Y81.605
X130.594Y58.693
X130.594Y45.993
X133.134Y58.693
X133.134Y45.993
X135.674Y58.693
X135.674Y45.993
X138.214Y58.693
X138.214Y45.993
X140.754Y58.693
X140.754Y45.993
X143.294Y58.693
X143.294Y45.993
X145.834Y58.693
X145.834Y45.993
X148.374Y58.693
X148.374Y45.993
X149.642Y38.26
X149.642Y35.72
X152.182Y38.26
X152.182Y35.72
X154.722Y38.26
X154.722Y35.72
X157.262Y38.26
X157.262Y35.72
X108.189Y40.597
X108.189Y38.057
X108.189Y35.517
X157.236Y91.752
X157.236Y89.212
X157.236Y86.672
X157.236Y84.132
X157.236Y81.592
X157.236Y79.052
X157.236Y76.512
X157.236Y73.972
X157.236Y71.432
X157.236Y68.892
X157.236Y66.352
X157.236Y63.812
X157.236Y61.272
X157.236Y58.732
X157.236Y56.192
X157.236Y53.652
X157.236Y51.112
X157.236Y48.572
X131.811Y43.442
X134.351Y43.442
X136.891Y43.442
X139.431Y43.442
X141.971Y43.442
X144.511Y43.442
X147.051Y43.442
X149.591Y43.442
X115.301Y86.545
X117.841Y86.545
X120.381Y86.545
X122.921Y86.545
X110.274Y58.693
X110.274Y45.993
X112.814Y58.693
X112.814Y45.993
X115.354Y58.693
X115.354Y45.993
X117.894Y58.693
X117.894Y45.993
X120.434Y58.693
X120.434Y45.993
X122.974Y58.693
X122.974Y45.993
X125.514Y58.693
X125.514Y45.993
X128.054Y58.693
X128.054Y45.993
X89.954Y81.528
X89.954Y68.828
X92.494Y81.528
X92.494Y68.828
X95.034Y81.528
X95.034Y68.828
X97.574Y81.528
X97.574Y68.828
X100.114Y81.528
X100.114Y68.828
X102.654Y81.528
X102.654Y68.828
X105.194Y81.528
X105.194Y68.828
X107.734Y81.528
X107.734Y68.828
X152.156Y91.727
X152.156Y89.187
X152.156Y86.647
X152.156Y84.107
X152.156Y81.567
X152.156Y79.027
X152.156Y76.487
X152.156Y73.947
X152.156Y71.407
X152.156Y68.867
X152.156Y66.327
X152.156Y63.787
X152.156Y61.247
X152.156Y58.707
X152.156Y56.167
X152.156Y53.627
X152.156Y51.087
X152.156Y48.547
X154.696Y91.727
X154.696Y89.187
X154.696Y86.647
X154.696Y84.107
X154.696Y81.567
X154.696Y79.027
X154.696Y76.487
X154.696Y73.947
X154.696Y71.407
X154.696Y68.867
X154.696Y66.327
X154.696Y63.787
X154.696Y61.247
X154.696Y58.707
X154.696Y56.167
X154.696Y53.627
X154.696Y51.087
X154.696Y48.547
X145.197Y86.685
X145.197Y84.145
X145.197Y81.605
X91.196Y43.429
X93.736Y43.429
X96.276Y43.429
X98.816Y43.429
X101.356Y43.429
X103.896Y43.429
X98.308Y86.545
X100.848Y86.545
X103.388Y86.545
X105.928Y86.545
X115.961Y35.72
X118.501Y35.72
X121.041Y35.72
X123.581Y35.72
X65.421Y53.432
X67.961Y53.432
X135.621Y64.193
X138.161Y64.193
X140.701Y64.193
X143.241Y64.193
X126.756Y91.702
X129.296Y91.702
X131.836Y91.702
X134.376Y91.702
X136.916Y91.702
X139.456Y91.702
X141.996Y91.702
X144.536Y91.702
X91.247Y36.713
X95.819Y36.713
X131.798Y38.26
X131.798Y35.72
X134.338Y38.26
X134.338Y35.72
X136.878Y38.26
X136.878Y35.72
X139.418Y38.26
X139.418Y35.72
X141.958Y38.26
X141.958Y35.72
X135.037Y86.685
X135.037Y84.145
X135.037Y81.605
X103.896Y91.702
X106.436Y91.702
X108.976Y91.702
X111.516Y91.702
X114.056Y91.702
X116.596Y91.702
X119.136Y91.702
X121.676Y91.702
X119.187Y64.727
X121.727Y64.727
X124.267Y64.727
X126.807Y64.727
X89.954Y58.693
X89.954Y45.993
X92.494Y58.693
X92.494Y45.993
X95.034Y58.693
X95.034Y45.993
X97.574Y58.693
X97.574Y45.993
X100.114Y58.693
X100.114Y45.993
X102.654Y58.693
X102.654Y45.993
X105.194Y58.693
X105.194Y45.993
X107.734Y58.693
X107.734Y45.993
X99.451Y64.752
X101.991Y64.752
X104.531Y64.752
X107.071Y64.752
X100.569Y40.597
X100.569Y38.057
X100.569Y35.517
X115.961Y38.26
X118.501Y38.26
X121.041Y38.26
X123.581Y38.26
X137.577Y86.685
X137.577Y84.145
X137.577Y81.605
X82.052Y91.702
X84.592Y91.702
X87.132Y91.702
X89.672Y91.702
X92.212Y91.702
X94.752Y91.702
X97.292Y91.702
X99.832Y91.702
X135.621Y61.653
X138.161Y61.653
X140.701Y61.653
X143.241Y61.653
T3
X101.559Y77.727
X101.559Y75.187
X104.099Y77.727
X104.099Y75.187
X106.639Y77.727
X106.639Y75.187
X142.174Y54.892
X142.174Y52.352
X144.714Y54.892
X144.714Y52.352
X147.254Y54.892
X147.254Y52.352
X122.133Y77.727
X122.133Y75.187
X124.673Y77.727
X124.673Y75.187
X127.213Y77.727
X127.213Y75.187
X121.829Y54.892
X121.829Y52.352
X124.369Y54.892
X124.369Y52.352
X126.909Y54.892
X126.909Y52.352
X101.763Y54.892
X101.763Y52.352
X104.303Y54.892
X104.303Y52.352
X106.843Y54.892
X106.843Y52.352
T4
X70.821Y84.76
X70.821Y79.68
X70.821Y74.6
X70.821Y69.52
T5
X64.134Y45.275
X64.134Y40.195
X67.986Y62.889
X67.986Y57.809
T6
X89.977Y39.253
X97.089Y39.253
T7
X73.213Y91.613
X154.493Y43.48
T0
M30
